{
  "extends": ["tslint:latest", "tslint-config-prettier", "tslint-immutable"],
  "rules": {
    "interface-name": [true, "never-prefix"],
    "no-implicit-dependencies": [true, "dev"],
    "no-var-keyword": false,
    "no-console": false,
    "array-type": [true, "generic"],
    "comment-format": false,
    "only-arrow-functions": false,
    "no-parameter-reassignment": false,
    "typedef": [true, "call-signature"],
    "readonly-keyword": false,
    "readonly-array": false,
    "no-let": false,
    "no-object-mutation": false,
    "no-array-mutation": false,
    "no-delete": true,
    "no-method-signature": true,
    "no-this": false,
    "no-class": false,
    "no-mixed-interface": true,
    "no-expression-statement":false,
    "no-if-statement": false,
    "jsdoc-format": false,
    "ordered-imports": false,
    "variable-name": {
      "options": [
        "ban-keywords",
        "check-format",
        "allow-leading-underscore",
        "allow-pascal-case"
      ]
    },
    "member-ordering": [
      true,
      {
        "order": [
          {
            "name": "static non-private",
            "kinds": [
              "public-static-field",
              "protected-static-field",
              "public-static-method",
              "protected-static-method"
            ]
          },
          "constructor"
        ]
      }
    ]
  }
}
